%YAML 1.1
%TAG !u! tag:unity3d.com,2011:
--- !u!78 &1
TagManager:
  serializedVersion: 2
  tags:
  - JOYSTICK
  - ITEMPOINT
  - CUSTOMERSPAWN
  - CUSTOMEREXIT
  - LOCKZONE
  - CANDY
  - TOY
  - CASHGIVEN
  - CUSTOMER
  - BOX
  - VENDING
  layers:
  - Default
  - TransparentFX
  - Ignore Raycast
  - Ground
  - Water
  - UI
  - MapBlock
  - Customer
  - 
  - 
  - 
  - 
  - 
  - 
  - 
  - 
  - 
  - 
  - 
  - 
  - 
  - 
  - 
  - 
  - 
  - 
  - 
  - 
  - 
  - 
  - 
  - 
  m_SortingLayers:
  - name: Default
    uniqueID: 0
    locked: 0
